module github.com/aws-containers/retail-store-sample-app/catalog

go 1.18

require (
	github.com/alecthomas/template v0.0.0-20190718012654-fb15b899a751
	github.com/dlmiddlecote/sqlstats v1.0.2
	github.com/gin-gonic/gin v1.9.1
	github.com/go-sql-driver/mysql v1.7.1
	github.com/golang-migrate/migrate/v4 v4.16.2
	github.com/jmoiron/sqlx v1.3.5
	github.com/prometheus/client_golang v1.17.0
	github.com/sethvargo/go-envconfig v0.1.1
	github.com/stretchr/testify v1.9.0
	github.com/swaggo/files v1.0.1
	github.com/swaggo/gin-swagger v1.6.0
	github.com/swaggo/swag v1.16.3
	github.com/testcontainers/testcontainers-go v0.27.0
	github.com/zsais/go-gin-prometheus v0.1.0
	go.opentelemetry.io/contrib/detectors/aws/ec2 v1.24.0
	go.opentelemetry.io/otel v1.24.0
	go.opentelemetry.io/otel/exporters/otlp/otlptrace v1.22.0
	go.opentelemetry.io/otel/sdk v1.24.0
)

require (
	dario.cat/mergo v1.0.0 // indirect
	github.com/Azure/go-ansiterm v0.0.0-20230124172434-306776ec8161 // indirect
	github.com/Microsoft/go-winio v0.6.1 // indirect
	github.com/Microsoft/hcsshim v0.11.4 // indirect
	github.com/aws/aws-sdk-go v1.50.15 // indirect
	github.com/bytedance/sonic v1.9.1 // indirect
	github.com/cenkalti/backoff/v4 v4.2.1 // indirect
	github.com/chenzhuoyu/base64x v0.0.0-20221115062448-fe3a3abad311 // indirect
	github.com/containerd/containerd v1.7.11 // indirect
	github.com/containerd/log v0.1.0 // indirect
	github.com/cpuguy83/dockercfg v0.3.1 // indirect
	github.com/davecgh/go-spew v1.1.1 // indirect
	github.com/docker/distribution v2.8.2+incompatible // indirect
	github.com/docker/docker v24.0.7+incompatible // indirect
	github.com/docker/go-connections v0.4.0 // indirect
	github.com/docker/go-units v0.5.0 // indirect
	github.com/gabriel-vasile/mimetype v1.4.2 // indirect
	github.com/go-logr/logr v1.4.1 // indirect
	github.com/go-logr/stdr v1.2.2 // indirect
	github.com/go-ole/go-ole v1.2.6 // indirect
	github.com/gogo/protobuf v1.3.2 // indirect
	github.com/google/uuid v1.4.0 // indirect
	github.com/grpc-ecosystem/grpc-gateway/v2 v2.16.0 // indirect
	github.com/jmespath/go-jmespath v0.4.0 // indirect
	github.com/klauspost/compress v1.16.7 // indirect
	github.com/klauspost/cpuid/v2 v2.2.4 // indirect
	github.com/lufia/plan9stats v0.0.0-20211012122336-39d0f177ccd0 // indirect
	github.com/magiconair/properties v1.8.7 // indirect
	github.com/moby/patternmatcher v0.6.0 // indirect
	github.com/moby/sys/sequential v0.5.0 // indirect
	github.com/moby/term v0.5.0 // indirect
	github.com/morikuni/aec v1.0.0 // indirect
	github.com/opencontainers/go-digest v1.0.0 // indirect
	github.com/opencontainers/image-spec v1.1.0-rc5 // indirect
	github.com/opencontainers/runc v1.1.12 // indirect
	github.com/pkg/errors v0.9.1 // indirect
	github.com/pmezard/go-difflib v1.0.0 // indirect
	github.com/power-devops/perfstat v0.0.0-20210106213030-5aafc221ea8c // indirect
	github.com/shirou/gopsutil/v3 v3.23.11 // indirect
	github.com/shoenig/go-m1cpu v0.1.6 // indirect
	github.com/signalfx/splunk-otel-go/instrumentation/database/sql/splunksql v1.14.0 // indirect
	github.com/signalfx/splunk-otel-go/instrumentation/internal v1.14.0 // indirect
	github.com/tklauser/go-sysconf v0.3.12 // indirect
	github.com/tklauser/numcpus v0.6.1 // indirect
	github.com/twitchyliquid64/golang-asm v0.15.1 // indirect
	github.com/yusufpapurcu/wmi v1.2.3 // indirect
	go.opentelemetry.io/otel/metric v1.24.0 // indirect
	go.opentelemetry.io/otel/trace v1.24.0 // indirect
	go.opentelemetry.io/proto/otlp v1.0.0 // indirect
	golang.org/x/arch v0.3.0 // indirect
	golang.org/x/exp v0.0.0-20230626212559-97b1e661b5df // indirect
	golang.org/x/mod v0.12.0 // indirect
	google.golang.org/genproto/googleapis/api v0.0.0-20231002182017-d307bd883b97 // indirect
	google.golang.org/genproto/googleapis/rpc v0.0.0-20231002182017-d307bd883b97 // indirect
	google.golang.org/grpc v1.60.1 // indirect
	gotest.tools/v3 v3.5.1 // indirect
)

require (
	github.com/KyleBanks/depth v1.2.1 // indirect
	github.com/beorn7/perks v1.0.1 // indirect
	github.com/cespare/xxhash/v2 v2.2.0 // indirect
	github.com/gin-contrib/sse v0.1.0 // indirect
	github.com/go-openapi/jsonpointer v0.19.5 // indirect
	github.com/go-openapi/jsonreference v0.20.0 // indirect
	github.com/go-openapi/spec v0.20.7 // indirect
	github.com/go-openapi/swag v0.22.3 // indirect
	github.com/go-playground/locales v0.14.1 // indirect
	github.com/go-playground/universal-translator v0.18.1 // indirect
	github.com/go-playground/validator/v10 v10.14.0 // indirect
	github.com/goccy/go-json v0.10.2 // indirect
	github.com/golang/protobuf v1.5.3 // indirect
	github.com/hashicorp/errwrap v1.1.0 // indirect
	github.com/hashicorp/go-multierror v1.1.1 // indirect
	github.com/josharian/intern v1.0.0 // indirect
	github.com/json-iterator/go v1.1.12 // indirect
	github.com/leodido/go-urn v1.2.4 // indirect
	github.com/mailru/easyjson v0.7.7 // indirect
	github.com/mattn/go-isatty v0.0.19 // indirect
	github.com/matttproud/golang_protobuf_extensions v1.0.4 // indirect
	github.com/modern-go/concurrent v0.0.0-20180306012644-bacd9c7ef1dd // indirect
	github.com/modern-go/reflect2 v1.0.2 // indirect
	github.com/pelletier/go-toml/v2 v2.0.8 // indirect
	github.com/prometheus/client_model v0.4.1-0.20230718164431-9a2bf3000d16 // indirect
	github.com/prometheus/common v0.44.0 // indirect
	github.com/prometheus/procfs v0.11.1 // indirect
	github.com/signalfx/splunk-otel-go/instrumentation/github.com/jmoiron/sqlx/splunksqlx v1.14.0
	github.com/sirupsen/logrus v1.9.3 // indirect
	github.com/ugorji/go/codec v1.2.11 // indirect
	go.opentelemetry.io/contrib/instrumentation/github.com/gin-gonic/gin/otelgin v0.46.1
	go.opentelemetry.io/contrib/propagators/aws v1.24.0
	go.opentelemetry.io/otel/exporters/otlp/otlptrace/otlptracegrpc v1.22.0
	go.uber.org/atomic v1.10.0 // indirect
	golang.org/x/crypto v0.17.0 // indirect
	golang.org/x/net v0.18.0 // indirect
	golang.org/x/sys v0.17.0 // indirect
	golang.org/x/text v0.14.0 // indirect
	golang.org/x/tools v0.11.0 // indirect
	google.golang.org/protobuf v1.32.0 // indirect
	gopkg.in/yaml.v3 v3.0.1 // indirect
)
